…
    total_per_day

    ## # A tibble: 53 x 2
    ##          date   sum
    ##        <date> <int>
    ##  1 2012-10-02   126
    ##  2 2012-10-03 11352
    ##  3 2012-10-04 12116
    ##  4 2012-10-05 13294
    ##  5 2012-10-06 15420
    ##  6 2012-10-07 11015
    ##  7 2012-10-09 12811
    ##  8 2012-10-10  9900
    ##  9 2012-10-11 10304
    ## 10 2012-10-12 17382
    ## # ... with 43 more rows
…
What is the impact of imputing missing data on the estimates of the
total daily number of steps?

    compare <- left_join(mean_med2, mean_med, by = "date")
    names(compare) <- c ("date", "mean_filled_NAs", "median_filled_NAs", "mean_orig", "median_orig")
    compare <- compare [, c(1, 4, 2, 5, 3)]
    compare

    ## # A tibble: 61 x 5
    ##          date mean_orig mean_filled_NAs median_orig median_filled_NAs
    ##        <date>     <dbl>           <dbl>       <dbl>             <dbl>
    ##  1 2012-10-01        NA        37.38260          NA          34.11321
    ##  2 2012-10-02   0.43750         0.43750           0           0.00000
    ##  3 2012-10-03  39.41667        39.41667           0           0.00000
    ##  4 2012-10-04  42.06944        42.06944           0           0.00000
    ##  5 2012-10-05  46.15972        46.15972           0           0.00000
    ##  6 2012-10-06  53.54167        53.54167           0           0.00000
    ##  7 2012-10-07  38.24653        38.24653           0           0.00000
    ##  8 2012-10-08        NA        37.38260          NA          34.11321
    ##  9 2012-10-09  44.48264        44.48264           0           0.00000
    ## 10 2012-10-10  34.37500        34.37500           0           0.00000
    ## # ... with 51 more rows
…
